EESchema Schematic File Version 2
LIBS:lipo-rescue
LIBS:power
LIBS:device
LIBS:transistors
LIBS:conn
LIBS:linear
LIBS:regul
LIBS:74xx
LIBS:cmos4000
LIBS:adc-dac
LIBS:memory
LIBS:xilinx
LIBS:microcontrollers
LIBS:dsp
LIBS:microchip
LIBS:analog_switches
LIBS:motorola
LIBS:texas
LIBS:intel
LIBS:audio
LIBS:interface
LIBS:digital-audio
LIBS:philips
LIBS:display
LIBS:cypress
LIBS:siliconi
LIBS:opto
LIBS:atmel
LIBS:contrib
LIBS:valves
LIBS:pspice
LIBS:lipo-cache
EELAYER 26 0
EELAYER END
$Descr A4 11693 8268
encoding utf-8
Sheet 1 1
Title ""
Date ""
Rev ""
Comp ""
Comment1 ""
Comment2 ""
Comment3 ""
Comment4 ""
$EndDescr
$Comp
L CONN_01X02 P1
U 1 1 58429DD3
P 875 2525
F 0 "P1" H 875 2350 50  0000 C CNN
F 1 "SOLAR" V 1000 2525 50  0000 C CNN
F 2 "Connectors_Terminal_Blocks:TerminalBlock_Pheonix_MKDS1.5-2pol" H 875 2525 50  0001 C CNN
F 3 "" H 875 2525 50  0000 C CNN
	1    875  2525
	-1   0    0    1   
$EndComp
$Comp
L C C1
U 1 1 5842A16D
P 2900 2775
F 0 "C1" H 3015 2821 50  0000 L CNN
F 1 "10üF" H 3015 2730 50  0000 L CNN
F 2 "Capacitors_SMD:C_0805_HandSoldering" H 2938 2625 50  0001 C CNN
F 3 "" H 2900 2775 50  0000 C CNN
	1    2900 2775
	1    0    0    -1  
$EndComp
$Comp
L GND #PWR01
U 1 1 5842A269
P 2900 3000
F 0 "#PWR01" H 2900 2750 50  0001 C CNN
F 1 "GND" H 2905 2827 50  0000 C CNN
F 2 "" H 2900 3000 50  0000 C CNN
F 3 "" H 2900 3000 50  0000 C CNN
	1    2900 3000
	1    0    0    -1  
$EndComp
Text GLabel 3125 2475 2    60   Output ~ 0
VIN
Text GLabel 4300 4525 0    60   Input ~ 0
VIN
Text GLabel 2700 3475 2    60   Input ~ 0
VIN_PEAK_POWER
Text GLabel 4325 4625 0    60   Input ~ 0
VIN_PEAK_POWER
$Comp
L GND #PWR02
U 1 1 5842AD9E
P 2525 4725
F 0 "#PWR02" H 2525 4475 50  0001 C CNN
F 1 "GND" H 2530 4552 50  0000 C CNN
F 2 "" H 2525 4725 50  0000 C CNN
F 3 "" H 2525 4725 50  0000 C CNN
	1    2525 4725
	1    0    0    -1  
$EndComp
$Comp
L R R1
U 1 1 5842AE18
P 2525 3175
F 0 "R1" H 2595 3221 50  0000 L CNN
F 1 "510k" H 2595 3130 50  0000 L CNN
F 2 "Resistors_SMD:R_0603_HandSoldering" V 2455 3175 50  0001 C CNN
F 3 "" H 2525 3175 50  0000 C CNN
	1    2525 3175
	1    0    0    -1  
$EndComp
$Comp
L R R3
U 1 1 5842AF6A
P 2525 4400
F 0 "R3" H 2595 4446 50  0000 L CNN
F 1 "62k" H 2595 4355 50  0000 L CNN
F 2 "Resistors_SMD:R_0603_HandSoldering" V 2455 4400 50  0001 C CNN
F 3 "" H 2525 4400 50  0000 C CNN
	1    2525 4400
	1    0    0    -1  
$EndComp
Text Notes 725  4225 0    60   ~ 0
Input Voltage Regulation \nreference. Maximum charge \ncurrent is reduced \nwhen this pin is below 2.7V.
Text GLabel 4325 4725 0    60   Input ~ 0
SHDN
$Comp
L C C2
U 1 1 5842C098
P 4250 5250
F 0 "C2" H 4135 5204 50  0000 R CNN
F 1 "C_TIM" H 4135 5295 50  0000 R CNN
F 2 "Capacitors_SMD:C_0603_HandSoldering" H 4288 5100 50  0001 C CNN
F 3 "" H 4250 5250 50  0000 C CNN
	1    4250 5250
	-1   0    0    1   
$EndComp
$Comp
L GND #PWR03
U 1 1 5842C29E
P 4250 5500
F 0 "#PWR03" H 4250 5250 50  0001 C CNN
F 1 "GND" H 4255 5327 50  0000 C CNN
F 2 "" H 4250 5500 50  0000 C CNN
F 3 "" H 4250 5500 50  0000 C CNN
	1    4250 5500
	1    0    0    -1  
$EndComp
$Comp
L CONN_01X02 P4
U 1 1 5842C443
P 7075 3375
F 0 "P4" H 6994 3100 50  0000 C CNN
F 1 "BATTERY" H 6994 3191 50  0000 C CNN
F 2 "Connectors_Terminal_Blocks:TerminalBlock_Pheonix_MKDS1.5-2pol" H 7075 3375 50  0001 C CNN
F 3 "" H 7075 3375 50  0000 C CNN
	1    7075 3375
	1    0    0    -1  
$EndComp
$Comp
L GND #PWR04
U 1 1 5842C64A
P 5225 5700
F 0 "#PWR04" H 5225 5450 50  0001 C CNN
F 1 "GND" H 5230 5527 50  0000 C CNN
F 2 "" H 5225 5700 50  0000 C CNN
F 3 "" H 5225 5700 50  0000 C CNN
	1    5225 5700
	1    0    0    -1  
$EndComp
$Comp
L THERMISTOR TH1
U 1 1 5842C75B
P 6750 4925
F 0 "TH1" V 6600 4925 50  0000 C CNN
F 1 "THERMISTOR 10K" V 6675 4950 50  0000 C CNN
F 2 "Discret:R1" H 6750 4925 50  0001 C CNN
F 3 "" H 6750 4925 50  0000 C CNN
	1    6750 4925
	0    1    1    0   
$EndComp
$Comp
L R R8
U 1 1 5842CD23
P 8600 2475
F 0 "R8" V 8675 2500 50  0000 C CNN
F 1 "10k" V 8500 2450 50  0000 C CNN
F 2 "Resistors_SMD:R_0603_HandSoldering" V 8530 2475 50  0001 C CNN
F 3 "" H 8600 2475 50  0000 C CNN
	1    8600 2475
	-1   0    0    1   
$EndComp
Text GLabel 8600 2650 3    60   Input ~ 0
FAULT
Text GLabel 4325 4825 0    60   Input ~ 0
CHGR
Text GLabel 4325 4925 0    60   Input ~ 0
FAULT
$Comp
L R R6
U 1 1 5842DA2C
P 5325 3550
F 0 "R6" H 5395 3596 50  0000 L CNN
F 1 "R" H 5395 3505 50  0000 L CNN
F 2 "Resistors_SMD:R_0603_HandSoldering" V 5255 3550 50  0001 C CNN
F 3 "" H 5325 3550 50  0000 C CNN
	1    5325 3550
	1    0    0    -1  
$EndComp
$Comp
L R R5
U 1 1 5842DD50
P 5325 3125
F 0 "R5" H 5395 3171 50  0000 L CNN
F 1 "R" H 5395 3080 50  0000 L CNN
F 2 "Resistors_SMD:R_0603_HandSoldering" V 5255 3125 50  0001 C CNN
F 3 "" H 5325 3125 50  0000 C CNN
	1    5325 3125
	1    0    0    -1  
$EndComp
Text GLabel 5975 5025 2    60   Input ~ 0
THRESHOLD
Text GLabel 5100 3325 0    60   Input ~ 0
THRESHOLD
$Comp
L GND #PWR05
U 1 1 5842E339
P 6150 3875
F 0 "#PWR05" H 6150 3625 50  0001 C CNN
F 1 "GND" H 6155 3702 50  0000 C CNN
F 2 "" H 6150 3875 50  0000 C CNN
F 3 "" H 6150 3875 50  0000 C CNN
	1    6150 3875
	1    0    0    -1  
$EndComp
$Comp
L C C4
U 1 1 5843DF4F
P 6450 3350
F 0 "C4" H 6565 3396 50  0000 L CNN
F 1 "10uF" H 6565 3305 50  0000 L CNN
F 2 "Capacitors_SMD:C_0805_HandSoldering" H 6488 3200 50  0001 C CNN
F 3 "" H 6450 3350 50  0000 C CNN
	1    6450 3350
	1    0    0    -1  
$EndComp
Text GLabel 5975 4825 2    60   Input ~ 0
BAT
Text GLabel 5925 2600 2    60   Input ~ 0
BAT
$Comp
L D_Schottky D2
U 1 1 584402E1
P 4600 1825
F 0 "D2" H 4600 1609 50  0000 C CNN
F 1 "CMSH1-40MA" H 4425 1925 50  0000 C CNN
F 2 "Diodes_SMD:SMA-SMB_Universal_Handsoldering" H 4600 1825 50  0001 C CNN
F 3 "" H 4600 1825 50  0000 C CNN
	1    4600 1825
	1    0    0    -1  
$EndComp
$Comp
L GND #PWR06
U 1 1 58440C66
P 4825 1825
F 0 "#PWR06" H 4825 1575 50  0001 C CNN
F 1 "GND" H 4830 1652 50  0000 C CNN
F 2 "" H 4825 1825 50  0000 C CNN
F 3 "" H 4825 1825 50  0000 C CNN
	1    4825 1825
	0    -1   -1   0   
$EndComp
$Comp
L C C3
U 1 1 58440A93
P 4375 2525
F 0 "C3" H 4490 2571 50  0000 L CNN
F 1 "1uF" H 4475 2475 50  0000 L CNN
F 2 "Capacitors_SMD:C_0805_HandSoldering" H 4413 2375 50  0001 C CNN
F 3 "" H 4375 2525 50  0000 C CNN
	1    4375 2525
	1    0    0    -1  
$EndComp
$Comp
L D D3
U 1 1 5844159E
P 4775 2925
F 0 "D3" H 4825 3025 50  0000 C CNN
F 1 "D" H 4825 2825 50  0000 C CNN
F 2 "Diodes_THT:D_DO-35_SOD27_P7.62mm_Horizontal" H 4775 2925 50  0001 C CNN
F 3 "" H 4775 2925 50  0000 C CNN
	1    4775 2925
	1    0    0    -1  
$EndComp
Text GLabel 5300 2100 1    60   Input ~ 0
SENSE
Text GLabel 5975 4725 2    60   Input ~ 0
SENSE
Text GLabel 5975 4625 2    60   Input ~ 0
BOOST
Text GLabel 4100 2925 0    60   Input ~ 0
BOOST
Text GLabel 5975 4525 2    60   Input ~ 0
SW
Text GLabel 4100 2175 0    60   Input ~ 0
SW
$Comp
L INDUCTOR-RESCUE-lipo L1
U 1 1 58443278
P 4875 2175
F 0 "L1" H 4775 2350 50  0000 L CNN
F 1 "10uH" V 4825 2075 50  0000 L CNN
F 2 "Choke_SMD:Choke_SMD_Wuerth-WE-PD-Typ-M-Typ-S_Handsoldering" H 4875 2175 50  0001 C CNN
F 3 "" H 4875 2175 50  0000 C CNN
	1    4875 2175
	0    -1   -1   0   
$EndComp
$Comp
L R R7
U 1 1 58443AF1
P 5575 2175
F 0 "R7" V 5475 2075 50  0000 C CNN
F 1 "0.05" V 5475 2225 50  0000 C CNN
F 2 "Resistors_SMD:R_1206_HandSoldering" V 5505 2175 50  0001 C CNN
F 3 "" H 5575 2175 50  0000 C CNN
	1    5575 2175
	0    1    1    0   
$EndComp
Text Notes 7075 1350 0    197  ~ 0
LiFePo Solary charger
NoConn ~ 7800 2325
Text GLabel 8300 2325 3    60   Input ~ 0
CHGR
$Comp
L GND #PWR07
U 1 1 5849C5C2
P 7075 5025
F 0 "#PWR07" H 7075 4775 50  0001 C CNN
F 1 "GND" H 7080 4852 50  0000 C CNN
F 2 "" H 7075 5025 50  0000 C CNN
F 3 "" H 7075 5025 50  0000 C CNN
	1    7075 5025
	1    0    0    -1  
$EndComp
$Comp
L LT3652 U1
U 1 1 584BF78F
P 5225 4775
F 0 "U1" H 5225 5175 60  0000 C CNN
F 1 "LT3652" H 5225 5300 60  0000 C CNN
F 2 "Housings_SSOP:MSOP-12-1EP_3x4mm_Pitch0.65mm" H 5225 4775 60  0001 C CNN
F 3 "" H 5225 4775 60  0001 C CNN
	1    5225 4775
	1    0    0    -1  
$EndComp
Text Notes 2575 5425 0    60   ~ 0
TEOC = C_TIM • 4.4 • 106 \n\nTEOC is in hours. 0.68uF == 3h\n
Text Notes 7475 4700 0    60   ~ 0
R5 = (VBAT(FLT) • 2.5 • pow(10,5))/3.3 (Ω)\nR6 = ((R5) • 2.5 • pow(10,5))/((R5)) - (2.5 • pow(10,5))) (Ω)
$Comp
L PWR_FLAG #FLG08
U 1 1 586428F2
P 1300 1325
F 0 "#FLG08" H 1300 1400 50  0001 C CNN
F 1 "PWR_FLAG" V 1300 1650 50  0000 C CNN
F 2 "" H 1300 1325 50  0000 C CNN
F 3 "" H 1300 1325 50  0000 C CNN
	1    1300 1325
	0    -1   -1   0   
$EndComp
$Comp
L PWR_FLAG #FLG09
U 1 1 58643184
P 1300 1150
F 0 "#FLG09" H 1300 1225 50  0001 C CNN
F 1 "PWR_FLAG" V 1300 1300 50  0000 L CNN
F 2 "" H 1300 1150 50  0000 C CNN
F 3 "" H 1300 1150 50  0000 C CNN
	1    1300 1150
	0    -1   -1   0   
$EndComp
$Comp
L GND #PWR010
U 1 1 586650FE
P 1375 1150
F 0 "#PWR010" H 1375 900 50  0001 C CNN
F 1 "GND" H 1380 977 50  0000 C CNN
F 2 "" H 1375 1150 50  0000 C CNN
F 3 "" H 1375 1150 50  0000 C CNN
	1    1375 1150
	0    -1   -1   0   
$EndComp
$Comp
L VCC #PWR011
U 1 1 58665347
P 1375 1325
F 0 "#PWR011" H 1375 1175 50  0001 C CNN
F 1 "VCC" H 1393 1498 50  0000 C CNN
F 2 "" H 1375 1325 50  0000 C CNN
F 3 "" H 1375 1325 50  0000 C CNN
	1    1375 1325
	0    1    1    0   
$EndComp
$Comp
L VCC #PWR012
U 1 1 5866553C
P 2525 2400
F 0 "#PWR012" H 2525 2250 50  0001 C CNN
F 1 "VCC" H 2525 2550 50  0000 C CNN
F 2 "" H 2525 2400 50  0000 C CNN
F 3 "" H 2525 2400 50  0000 C CNN
	1    2525 2400
	1    0    0    -1  
$EndComp
$Comp
L D_Schottky D4
U 1 1 586930CF
P 6775 2650
F 0 "D4" H 6775 2434 50  0000 C CNN
F 1 "CMSH1-40MA" H 6775 2525 50  0000 C CNN
F 2 "Diodes_SMD:SMA-SMB_Universal_Handsoldering" H 6775 2650 50  0001 C CNN
F 3 "" H 6775 2650 50  0000 C CNN
	1    6775 2650
	0    1    1    0   
$EndComp
$Comp
L CONN_01X02 P3
U 1 1 586932ED
P 6975 2225
F 0 "P3" H 6975 2400 50  0000 C CNN
F 1 "LOAD" H 6975 2050 50  0000 C CNN
F 2 "Connectors_Terminal_Blocks:TerminalBlock_Pheonix_MKDS1.5-2pol" H 6975 2225 50  0001 C CNN
F 3 "" H 6975 2225 50  0000 C CNN
	1    6975 2225
	1    0    0    -1  
$EndComp
$Comp
L GND #PWR013
U 1 1 58693F0C
P 6700 2025
F 0 "#PWR013" H 6700 1775 50  0001 C CNN
F 1 "GND" H 6705 1852 50  0000 C CNN
F 2 "" H 6700 2025 50  0000 C CNN
F 3 "" H 6700 2025 50  0000 C CNN
	1    6700 2025
	-1   0    0    1   
$EndComp
Text Notes 9725 5500 0    60   ~ 0
2Cell:\n\nR5 = 545k (560k)\nR6 = 462k (470k)\n\nratio: 0.45
$Comp
L R R2
U 1 1 58CE58C4
P 2525 3775
F 0 "R2" H 2595 3821 50  0000 L CNN
F 1 "30k" H 2595 3730 50  0000 L CNN
F 2 "Resistors_SMD:R_0603_HandSoldering" V 2455 3775 50  0001 C CNN
F 3 "" H 2525 3775 50  0000 C CNN
	1    2525 3775
	1    0    0    -1  
$EndComp
Text GLabel 2700 4125 2    60   Input ~ 0
SHDN
Text Notes 800  7250 0    60   ~ 0
Version 2.1\n\n* FET pins fixed \n\nVersion 2\n\n* Changed 0R SHDN and connected it to SOLARY voltage divider instead.\n* Footprints for resistors changed to use SMB 0603.
Text Notes 8575 5300 0    60   ~ 0
3Cell:\n\nR5 = 818k (820k)\nR6 = 360k\n
$Comp
L GND #PWR014
U 1 1 58CEC024
P 1200 2650
F 0 "#PWR014" H 1200 2400 50  0001 C CNN
F 1 "GND" H 1205 2477 50  0000 C CNN
F 2 "" H 1200 2650 50  0000 C CNN
F 3 "" H 1200 2650 50  0000 C CNN
	1    1200 2650
	1    0    0    -1  
$EndComp
Text Notes 725  5050 0    60   ~ 0
SHDN (Pin 3):\nPrecision Threshold\nShutdown Pin. The\nenable threshold 1.2V (rising), \nwith 120mV of input hysteresis. \nWhen in shutdown mode, \nall charging functions\nare disabled.
$Comp
L GND #PWR015
U 1 1 58444E3B
P 7700 2325
F 0 "#PWR015" H 7700 2075 50  0001 C CNN
F 1 "GND" H 7705 2152 50  0000 C CNN
F 2 "" H 7700 2325 50  0000 C CNN
F 3 "" H 7700 2325 50  0000 C CNN
	1    7700 2325
	1    0    0    -1  
$EndComp
Text Notes 7525 5400 0    60   ~ 0
4Cell:\n\nR5 = 1.09M (1.1M)\nR6 = 324k (330k)\n\n
NoConn ~ 7500 2325
NoConn ~ 7600 2325
Text GLabel 7900 2325 3    60   Input ~ 0
VIN_PEAK_POWER
$Comp
L CONN_01X12 J1
U 1 1 5907444D
P 8050 2125
F 0 "J1" V 8265 2120 50  0000 C CNN
F 1 "CONN_01X12" V 8174 2120 50  0000 C CNN
F 2 "Pin_Headers:Pin_Header_Straight_1x12_Pitch2.54mm" H 8050 2125 50  0001 C CNN
F 3 "" H 8050 2125 50  0001 C CNN
	1    8050 2125
	0    -1   -1   0   
$EndComp
NoConn ~ 8400 2325
NoConn ~ 8500 2325
NoConn ~ 8100 2325
NoConn ~ 8200 2325
NoConn ~ 8000 2325
Text GLabel 2175 3300 3    60   Input ~ 0
CHGR
$Comp
L R R9
U 1 1 590EF2CB
P 2175 3150
F 0 "R9" H 2245 3196 50  0000 L CNN
F 1 "10k" H 2245 3105 50  0000 L CNN
F 2 "Resistors_SMD:R_0603_HandSoldering" V 2105 3150 50  0001 C CNN
F 3 "" H 2175 3150 50  0000 C CNN
	1    2175 3150
	-1   0    0    1   
$EndComp
Wire Wire Line
	1775 2475 3125 2475
Connection ~ 2525 2475
Wire Wire Line
	1075 2575 1200 2575
Wire Wire Line
	4300 4525 4425 4525
Wire Wire Line
	4325 4625 4425 4625
Wire Wire Line
	2525 2400 2525 3025
Wire Wire Line
	2525 3325 2525 3625
Wire Wire Line
	2525 3475 2700 3475
Connection ~ 2525 3475
Wire Wire Line
	2525 4550 2525 4725
Wire Wire Line
	4325 4725 4425 4725
Wire Wire Line
	4425 5025 4250 5025
Wire Wire Line
	4250 5025 4250 5100
Wire Wire Line
	4250 5400 4250 5500
Wire Wire Line
	5225 5625 5225 5700
Wire Wire Line
	5925 4925 6500 4925
Wire Wire Line
	8600 2625 8600 2650
Wire Wire Line
	4325 4925 4425 4925
Wire Wire Line
	4325 4825 4425 4825
Wire Wire Line
	5925 5025 5975 5025
Wire Wire Line
	5100 3325 5325 3325
Wire Wire Line
	5325 3275 5325 3400
Connection ~ 5325 3325
Wire Wire Line
	5925 4825 5975 4825
Wire Wire Line
	5325 3750 6775 3750
Wire Wire Line
	5325 3700 5325 3750
Wire Wire Line
	6775 2800 6775 3325
Wire Wire Line
	6775 3325 6875 3325
Wire Wire Line
	6875 3425 6775 3425
Wire Wire Line
	6775 3425 6775 3750
Wire Wire Line
	4100 2175 4575 2175
Wire Wire Line
	4100 2925 4625 2925
Wire Wire Line
	4375 2675 4375 2925
Connection ~ 4375 2925
Wire Wire Line
	5925 4725 5975 4725
Wire Wire Line
	5925 4625 5975 4625
Wire Wire Line
	5925 4525 5975 4525
Connection ~ 5325 2925
Wire Wire Line
	7000 4925 7075 4925
Wire Wire Line
	7075 4925 7075 5025
Wire Wire Line
	6450 2925 6450 3200
Connection ~ 6450 2925
Connection ~ 4375 2175
Wire Wire Line
	1075 2475 1375 2475
Wire Wire Line
	1300 1150 1375 1150
Wire Wire Line
	1300 1325 1375 1325
Wire Wire Line
	6775 2275 6775 2500
Wire Wire Line
	2525 3925 2525 4250
Wire Wire Line
	2700 4125 2525 4125
Connection ~ 2525 4125
Wire Wire Line
	5725 2175 5800 2175
Wire Wire Line
	5800 2175 5800 2925
Connection ~ 5800 2925
Wire Wire Line
	5175 2175 5425 2175
Wire Wire Line
	5300 2100 5300 2175
Connection ~ 5300 2175
Wire Wire Line
	4375 1825 4375 2375
Wire Wire Line
	5325 2975 5325 2925
Wire Wire Line
	5925 2600 5800 2600
Connection ~ 5800 2600
Wire Wire Line
	4375 1825 4450 1825
Wire Wire Line
	4750 1825 4825 1825
Wire Wire Line
	2900 2625 2900 2475
Connection ~ 2900 2475
Wire Wire Line
	2900 2925 2900 3000
Wire Wire Line
	1200 2575 1200 2650
Wire Wire Line
	6150 3875 6150 3750
Connection ~ 6150 3750
Wire Wire Line
	6450 3500 6450 3750
Connection ~ 6450 3750
Connection ~ 6775 2925
Wire Wire Line
	6700 2025 6700 2175
Wire Wire Line
	6700 2175 6775 2175
Wire Notes Line
	675  3725 675  5275
Wire Notes Line
	675  5275 2200 5275
Wire Notes Line
	2200 5275 2200 3725
Wire Notes Line
	2200 3725 675  3725
Wire Wire Line
	1575 2925 2175 2925
Wire Wire Line
	1575 2925 1575 2775
Connection ~ 2175 2475
Connection ~ 2175 2925
Wire Notes Line
	7350 4350 7350 5725
Wire Notes Line
	7350 5725 10750 5725
Wire Notes Line
	10750 5725 10750 4350
Wire Notes Line
	10750 4350 7350 4350
Wire Notes Line
	700  6775 700  7400
Wire Notes Line
	700  7400 4300 7400
Wire Notes Line
	4300 7400 4300 6775
Wire Notes Line
	4300 6400 700  6400
Wire Notes Line
	2550 5100 2550 5475
Wire Notes Line
	2550 5475 4100 5475
Wire Notes Line
	4100 5475 4100 5100
Wire Notes Line
	4100 5100 2550 5100
$Comp
L R R4
U 1 1 590F1050
P 2175 2725
F 0 "R4" H 2245 2771 50  0000 L CNN
F 1 "100k" H 2245 2680 50  0000 L CNN
F 2 "Resistors_SMD:R_0603_HandSoldering" V 2105 2725 50  0001 C CNN
F 3 "" H 2175 2725 50  0000 C CNN
	1    2175 2725
	-1   0    0    1   
$EndComp
Wire Wire Line
	2175 2475 2175 2575
Wire Wire Line
	2175 2875 2175 3000
$Comp
L Q_PMOS_GSD Q1
U 1 1 5936B490
P 1575 2575
F 0 "Q1" V 1918 2575 50  0000 C CNN
F 1 "si2319" V 1827 2575 50  0000 C CNN
F 2 "TO_SOT_Packages_SMD:SOT-23" H 1775 2675 50  0001 C CNN
F 3 "" H 1575 2575 50  0001 C CNN
	1    1575 2575
	0    -1   -1   0   
$EndComp
Wire Wire Line
	4925 2925 6775 2925
Text GLabel 6600 2275 0    60   Output ~ 0
VIN
Wire Wire Line
	6600 2275 6775 2275
$EndSCHEMATC
